S01,S1,T006,5,1.6
S01,S1,T004,5,1.6
S01,S1,T005,5,100
S01,S1,T005,5,1.6
S01,S1,T005,5,100
S01,S1,T005,5,100
S01,S1,T007,5,1.6
S01,S1,T007,5,1.6
S01,S1,T007,5,100
S01,S1,T009,5,100
S01,S1,T0011,5,1.6
S01,S1,T0015,5,1.6
S01,S1,T0015,5,100
S01,S1,T0015,5,1.6
S01,S1,T0017,5,1.6
S01,S1,T0020,5,1.6
S01,S1,T0021,5,100
S01,S1,T0022,5,1.6
S01,S1,T0023,5,100
S01,S1,T0023,5,1.6
S01,S1,T0024,5,1.6
S01,S1,T0029,5,1.6
S01,S1,T0034,5,100
S01,S1,T0037,5,1.6
S01,S1,T0039,5,1.6
S01,S1,T0040,5,100
S01,S1,T0040,5,100
S01,S1,T0043,5,1.6
S01,S1,T0044,5,1.6
S01,S1,T0044,5,1.6
S01,S1,T0044,5,100
S01,S1,T0044,5,100
S01,S1,T0044,5,1.6
S01,S1,T0046,5,100
S01,S1,T0030,2,1.6
S01,S1,T0043,2,1.6
S01,S1,T0043,2,100
S01,S1,T0043,2,100
S01,S1,T0044,2,1.6
S01,S1,T0044,2,1.6
S01,S1,T0044,2,1.6
S01,S1,T0044,2,100
S01,S1,T0044,2,100
S01,S1,T0045,2,1.6
S01,S1,T0045,2,1.6
S01,S1,T0045,2,100
S01,S1,T0046,2,1.6
S01,S1,T0061,2,100
S01,S1,T0065,2,100
S01,S1,T0050,5,1.6
S01,S1,T0051,5,1.6
S01,S1,T0052,5,1.6
S01,S1,T0053,5,1.6
S01,S1,T0062,5,1.6
S01,S1,T0063,5,100
S01,S1,T0071,5,1.6
S01,S1,T0072,5,1.6
S01,S1,T0076,2,100
S01,S1,T0077,2,100
S01,S1,T0077,2,1.6
S01,S1,T0078,2,1.6
S01,S1,T0083,2,1.6
S01,S1,T0086,2,100
S01,S1,T0086,2,100
S01,S1,T0087,2,100
S01,S1,T0092,2,1.6
S01,S1,T0095,2,100
S01,S1,T0088,5,1.6
S01,S1,T0092,5,1.6
S01,S1,T0083,5,1.6
S01,S1,T0083,5,1.6
S01,S1,T0084,5,100
S01,S1,T0087,5,1.6
S01,S1,T0087,5,1.6
S01,S1,T0089,5,100
S01,S1,T0090,5,1.6
S01,S1,T0090,5,1.6
S01,S1,T0090,5,1.6
S01,S1,T0092,5,1.6
S01,S1,T0092,5,100
S01,S1,T0093,5,1.6
S01,S1,T00102,2,1.6
S01,S1,T00102,2,100
S01,S1,T00102,2,1.6
S01,S1,T00106,2,100
S01,S1,T00107,2,100
S01,S1,T00108,2,100
S01,S1,T00106,5,100
S01,S1,T00107,5,100
S01,S1,T00119,5,100
S01,S1,T00100,2,100
S01,S1,T00101,2,1.6
S01,S1,T00103,2,1.6
S01,S1,T00108,2,100
S01,S1,T00115,2,1.6
S01,S1,T00117,2,1.6
S01,S1,T00118,2,100
S01,S1,T0073,2,1.6
S01,S1,T0073,2,1.6
